<?xml version="1.0" standalone="no"?>
<!-- Generator: SVG Circus (http://svgcircus.com) -->
<!DOCTYPE svg PUBLIC "-//W3C//DTD SVG 1.1//EN" "http://www.w3.org/Graphics/SVG/1.1/DTD/svg11.dtd">
<svg id="SVG-Circus-e60dddde-d632-de72-97ab-4d4ec2e1a6a7" version="1.1" xmlns="http://www.w3.org/2000/svg" xmlns:xlink="http://www.w3.org/1999/xlink" viewBox="0 0 100 100" preserveAspectRatio="xMidYMid meet"><circle id="actor_7" cx="50" cy="50" r="29" opacity="1" fill="rgba(107,224,83,1)" fill-opacity="1" stroke="rgba(31,155,229,1)" stroke-width="3" stroke-opacity="1" stroke-dasharray=""></circle><script type="text/ecmascript"><![CDATA[(function(){var actors={};actors.actor_7={node:document.getElementById("SVG-Circus-e60dddde-d632-de72-97ab-4d4ec2e1a6a7").getElementById("actor_7"),type:"circle",cx:50,cy:50,dx:58,dy:23,opacity:1};var tricks={};tricks.trick_1=(function(_,t){t=(function(t){return(t/=.5)<1?-0.5*(Math.sqrt(1-t*t)-1):.5*(Math.sqrt(1-(t-=2)*t)+1)})(t)%1,t=0>t?1+t:t;var i;i=0.00>=t?1+(4.0-1)/0.00*t:t>=2.5?4.0-(t-2.5)*((4.0-1)/(1-2.5)):4.0;var a=_._tMatrix,r=-_.cx*i+_.cx,x=-_.cy*i+_.cy,c=a[0]*i,n=a[1]*i,M=a[2]*i,f=a[3]*i,g=a[0]*r+a[2]*x+a[4],m=a[1]*r+a[3]*x+a[5];_._tMatrix[0]=c,_._tMatrix[1]=n,_._tMatrix[2]=M,_._tMatrix[3]=f,_._tMatrix[4]=g,_._tMatrix[5]=m});var scenarios={};scenarios.scenario_1={actors: [],tricks: [{trick: "trick_1",start:0,end:1}],startAfter:0,duration:5000,actorDelay:0,repeat:0,repeatDelay:0};var _reqAnimFrame=window.requestAnimationFrame||window.mozRequestAnimationFrame||window.webkitRequestAnimationFrame||window.oRequestAnimationFrame,fnTick=function(t){var r,a,i,e,n,o,s,c,m,f,d,k,w;for(c in actors)actors[c]._tMatrix=[1,0,0,1,0,0];for(s in scenarios)for(o=scenarios[s],m=t-o.startAfter,r=0,a=o.actors.length;a>r;r++){if(i=actors[o.actors[r]],i&&i.node&&i._tMatrix)for(f=0,m>=0&&(d=o.duration+o.repeatDelay,o.repeat>0&&m>d*o.repeat&&(f=1),f+=m%d/o.duration),e=0,n=o.tricks.length;n>e;e++)k=o.tricks[e],w=(f-k.start)*(1/(k.end-k.start)),tricks[k.trick]&&tricks[k.trick](i,Math.max(0,Math.min(1,w)));m-=o.actorDelay}for(c in actors)i=actors[c],i&&i.node&&i._tMatrix&&i.node.setAttribute("transform","matrix("+i._tMatrix.join()+")");_reqAnimFrame(fnTick)};_reqAnimFrame(fnTick);})()]]></script></svg>